tipo_revoga;excerto
0;Êste Ato Complementar entrará em vigor na data de sua publicação, revogadas as disposições em contrário. Brasília, 9 de agôsto de 1966. 145o. da Independência e 78o. Da República
0;c) que, mediante processo adequado tiver revogada a sua naturalização por exercer atividade política ou social nociva ao interesse nacional.
0;Continuam em vigor, enquanto não revogadas, as leis que, explícita ou implicitamente, não contrariem as disposições desta Constituição.
0;Federal, isenções, incentivos e benefícios fiscais serão concedidos e revogados. Definir os combustíveis e lubrificantes sobre os quais o imposto
0;regular a forma e as condições como isenções, incentivos e benefícios fiscais serão concedidos e revogados.
0;Ficam revogados, a partir de cento e oitenta dias da promulgação da Constituição, sujeito este prazo a prorrogação por lei, todos os dispositivos legais que atribuam ou deleguem a órgão do Poder
0;Considerar-se-ão revogados após dois anos, a partir da data da promulgação da Constituição, os incentivos que não forem confirmados por lei. § 2o. A revogação não prejudicará os direitos que já tiver
0;não revogam, dispensam ou suspendem o cumprimento de dispositivos constitucionais e legais que disponham sobre metas fiscais ou limites máximos de despesas. (Incluído pela Emenda Constitucional no.
0;para fazê-lo em igual prazo e nas mesmas condições propostas pela primeira classificada ou revogar, total ou parcialmente, a licitação.
0;assinado pelo ministro do Estado dos Negócios do Trabalho, Indústria e Comércio revogadas as disposições em contrário. Rio de Janeiro, 19 de outubro de 1932, 111o. da Independência e
1;28. Fica revogado o Decreto no. 1.695, de 13 de novembro de 1995.
1;Fica revogado o Decreto no 3.451, de 9 de maio de 2000.
1;Ficam revogados os Decretos nos 4.232, de 14 de maio de 2002, 4.268, de 12 de junho de 2002, e o parágrafo único do art. 12 do Decreto no 4.081, de 11 de janeiro de 2002.
0;telecomunicações, não colidentes com o Código Brasileiro de Telecomunicações e não derrogadas ou revogadas explícita ou implícitamente pelo mesmo.
0;O presente Decreto entrará em vigor na data da sua publicação, revogadas as disposições em contrário. Brasília, 7 de abril de 1975 154o. da Independência e 87o. Da República
1;Este decreto entrará em vigor na data de sua publicação, ficando revogados os itens 11 e 12 do artigo 5o. e artigos 33, 79, 80, 81, 82, 83, 84, 85 e 86 e seus parágrafos, do Regulamento dos Serviços
0;Decretos A inexistência de atos neste site não significa sua revogação.
1;Ficam revogados os incisos XVII, XIX, XX, XXI, XXIII e XXV do Código de Ética Profissional do Servidor Público Civil do Poder Executivo Federal, aprovado pelo Decreto no 1.171, de 22 de junho de
0;Parágrafo único. Nos casos de anulação, cancelamento ou revogação da apreensão, o órgão ou a entidade ambiental responsável pela apreensão restituirá o bem no estado em que se encontra ou, na impossi
0;A autoridade superior responsável pelo julgamento do recurso poderá confirmar, modificar, anular ou revogar, total ou parcialmente, a decisão recorrida.
0;O CONAMA poderá confirmar, modificar, majorar, anular ou revogar, total ou parcialmente, a decisão recorrida. Parágrafo único. Nos casos de agravamento da penalidade, o autuado
1;Ficam revogados os Decretos nos 3.179, de 21 de setembro de 1999, 3.919, de 14 de setembro de 2001, 4.592, de 11 de fevereiro de 2003, 5.523, de 25 de agosto de 2005, os arts. 26 e 27 do Decreto no.
0;A revogação do ato deverá ser específica, devendo ser evitada a cláusula revogatória geral Revogam-se as disposições em contrário.
0;Decretos A inexistência de atos neste site não significa sua revogação Acesse aqui o
0;A inexistência de atos neste site não significa sua revogação.
0;Esta Lei entrará em vigor no dia 15 de março de 1967, revogadas as disposições em contrário.
1;São revogados os artigos 58 até 99 da Lei número 4.117, e 27 de agôsto de 1962, os quais são substituídos pelos seguintes novos artigos numerados de 58 a 72:
0;Esta Lei entrará em vigor na data de sua publicação, revogadas as disposições em contrário. Brasília, 28 de fevereiro de 1967 146o. da Independência e 79o.
1;Altera e revoga dispositivos da Lei número 4.737, de 15 de julho de 1965, modificada pela Lei no. 4.961, de 4 de maio de 1966.
1;Ficam revogados o § 1o. do artigo 16 da Lei no. 4.737, de 15 de julho de 1965, com a redação dada pelo art. 5o. da Lei no. 4.961, de 4 de maio de 1966, assim como o § 2o. do artigo 16, e os §§ 6o. e 7
0;Êste Decreto-lei entrará em vigor na data de sua publicação, revogadas as disposições em contrário. Brasília, 29 de janeiro de 1969 148o. da Independência e 81o. Da República
0;A suspensão é revogada se, no curso do prazo, o beneficiário:
0;A suspensão pode ser também revogada, se o condenado deixa de cumprir qualquer das obrigações constantes da sentença.
0;Quando facultativa a revogação, o juiz pode, ao invés de decretá-la, prorrogar o período de prova até o máximo, se êste não foi o fixado.
0;Se o beneficiário está respondendo a processo que, no caso de condenação, pode acarretar a revogação, considera-se prorrogado o prazo da suspensão até o julgamento definitivo.
0;Se o prazo expira sem que tenha sido revogada a suspensão, fica extinta a pena privativa de liberdade.
0;O juiz pode, também, revogar o livramento se o liberado deixa de cumprir qualquer das obrigações constantes da sentença ou é irrecorrìvelmente condenado, por motivo de contravenção, a pena que não
0;Se, antes de expirado o prazo estabelecido, é averiguada a cessação do perigo condicionante da interdição, esta é revogada mas, se o perigo persiste ao têrmo do prazo, prorroga-se êste enquanto não ce
0;a) do dia em que passa em julgado a sentença condenatória ou a que revoga a suspensão condicional da pena ou o livramento condicional b) do dia em que se interrompe a execução, salvo quando o tempo
0;No caso de evadir-se o condenado ou de revogar-se o livramento ou desinternação condicionais, a prescrição se regula pelo restante tempo da execução.
0;A reabilitação será revogada de ofício, ou a requerimento do Ministério Público, se a pessoa reabilitada fôr condenada, por decisão definitiva, ao cumprimento de pena privativa da liberdade.
1;São revogados o Decreto-lei número 6.227, de 24 de janeiro de 1944, e demais disposições contrárias a êste Código, salvo as leis especiais que definem os crimes contra a segurança nacional e a
0;Em se tratando de imóvel, o arresto será revogado, se, dentro em quinze dias, contados da sua decretação, não fôr requerida a inscrição e especialização da hipoteca legal.
0;Parágrafo único. Essa decisão poderá ser revogada a todo o tempo, desde que se modifique qualquer das condições previstas neste artigo.
0;O juiz poderá revogar a prisão preventiva se, no curso do processo, verificar a falta de motivos para que subsista, bem como de nôvo decretá-la, se sobrevierem razões que a justifiquem.
0;denegar a aplicação provisória da medida de segurança, mas esta poderá ser revogada, substituída ou modificada, a critério do juiz, mediante requerimento do Ministério Público, do indiciado ou acusado
0;Este Código entrará em vigor no dia 1 de fevereiro de 1940, revogadas as disposições em contrário. Rio de Janeiro. em 18 de setembro de 1939, 118o. da Independência e 51o.
1;Fica revogado o artigo 51 da Lei no. 4.117, de 27 de agosto de 1962, a Lei no. 6.127, de 6 de novembro de 1974, e as disposições em contrário.
0;Ressalvada a legislação especial sobre florestas, caça e pesca, revogam-se as disposições em contrário. Art. 72. Esta lei entrará em vigor no dia 1o. de janeiro de
0;O arresto do imóvel poderá ser decretado de início, revogando-se, porém, se no prazo de 15 dias não for promovido o processo de inscrição da hipoteca legal.
0;O juiz poderá, de ofício ou a pedido das partes, revogar a medida cautelar ou substituí-la quando verificar a falta de motivo para que subsista, bem como voltar a decretá-la, se sobrevierem razões que
0;acusado liberdade provisória, mediante termo de comparecimento obrigatório a todos os atos processuais, sob pena de revogação.
0;§ 1o. Também será admitida a prisão preventiva quando houver dúvida
0;O juiz poderá, de ofício ou a pedido das partes, revogar a prisão preventiva se, no correr da investigação ou do processo, verificar a falta de motivo para que ela subsista, bem como novamente
0;II - Art. 322. A autoridade policial somente poderá conceder fiança nos
0;V - Art. 324. Não será, igualmente, concedida fiança:
0;IV - quando presentes os motivos que autorizam a decretação da prisão
0;I - de 1 a 100 salários mínimos, quando se tratar de
0;Para determinar o valor da fiança, a autoridade terá em
0;§ 1o Não sendo encontrado o acusado, será procedida a citação por
0;I - se aplicadas no curso da instrução criminal, durante esta ou pelas
0;A decisão que impronunciar ou absolver o réu fará cessar a aplicação provisória de medida de segurança, a substituição ou a revogação da anteriormente aplicada poderão ser determinadas, tam
0;O juiz decidirá, motivadamente, no caso de manutenção, revogação ou substituição da prisão ou medida restritiva de liberdade anteriormente decretada e, tratando-se de acusado solto, sobre a
0;b) revogará as medidas restritivas provisoriamente decretadas
0;XI - que conceder, negar ou revogar a suspensão condicional da pena XII - que conceder, negar ou revogar livramento condicional XIII - que anular o processo da instrução criminal, no todo ou em
0;XXII - que revogar a medida de segurança XXIII - que deixar de revogar a medida de segurança, nos casos em que a lei admita a revogação XXIV - que converter a multa em detenção ou em prisão simples.
0;providência ao juiz, que, em face da perícia médica, ratificará ou revogará a medida. § 2o Se a internação se prolongar até o término do prazo restante da
0;A permissão para o pagamento em parcelas será revogada, se o juiz verificar que o condenado dela se vale para fraudar a execução da pena. Nesse caso, a caução resolver-se-á em valor monetário, devolve
0;de inspeção, para os fins legais , qualquer fato capaz de acarretar a revogação do benefício, a prorrogação do prazo ou a modificação das condições.
0;A suspensão será revogada se o beneficiário:
0;Parágrafo único. O juiz poderá revogar a suspensão, se o beneficiário deixa de cumprir qualquer das obrigações constantes da sentença, de observar proibições inerentes à pena acessória, ou é irrecorr
0;Expirado o prazo de suspensão ou a prorrogação, sem que tenha ocorrido motivo de revogação, a pena privativa de liberdade será declarada extinta.
0;repartição congênere, averbando-se, mediante comunicação do juiz ou do tribunal, a revogação da suspensão ou a extinção da pena. Em caso de revogação, será feita a averbação definitiva no registro ger
0;O juiz pode, também, revogar o livramento, se o liberado deixar de cumprir qualquer das obrigações constantes da sentença, de observar proibições inerentes à pena acessória ou for irrecorrivelmente
0;Parágrafo único. Se o juiz não revogar o livramento, deverá advertir o liberado ou exacerbar as condições.
0;Se a revogação for motivada por infração penal anterior à vigência do livramento, computar-se-á no tempo da pena o período em que esteve solto o liberado, sendo permitida, para a concessão
0;A revogação do livramento será decretada mediante representação do Conselho Penitenciário, ou a requerimento do Ministério Público, ou de ofício, pelo juiz, que, antes, ouvirá o
0;poderá ordenar a sua prisão, ouvido o Conselho Penitenciário, suspendendo o curso do livramento condicional, cuja revogação ficará, entretanto, dependendo da decisão final no novo processo.
0;pena privativa de liberdade, se expirar o prazo do livramento sem revogação, ou na hipótese do artigo anterior, for o liberado absolvido por sentença irrecorrível.
0;A revogação de reabilitação será decretada pelo juiz, de ofício ou a requerimento do Ministério Público.
0;o diretor do estabelecimento de internação ou a autoridade policial deverá, no relatório, concluir pela conveniência da revogação, ou não, da medida de segurança
0;Transitando em julgado a sentença de revogação, o juiz expedirá ordem para a desinternação, quando se tratar de medida detentiva, ou para que cesse a vigilância ou a proibição, nos outros
0;O seqüestro do imóvel poderá ser decretado de início, revogando-se, porém, se no prazo de 15 dias não for promovido o processo de inscrição da hipoteca legal. de 15 dias não for promovido o processo
0;O arresto do imóvel poderá ser decretado de início, revogando-se, porém, se no prazo
0;O juiz poderá revogar a medida cautelar ou substituí-la quando verificar a falta de motivo para que subsista, bem como voltar a decretá-la, se sobrevierem razões que a justifiquem.
0;O juiz poderá, de ofício ou a pedido das partes, revogar a medida cautelar ou substituí-la quando verificar a falta de motivo para que subsista, bem como voltar a decretá-la, se sobrevierem razões que
0;conceder ao réu liberdade provisória, mediante termo de comparecimento a todos os atos do processo, sob pena de revogação. Parágrafo único. Igual procedimento será adotado quando o juiz
0;acusado liberdade provisória, mediante termo de comparecimento a todos os atos processuais, sob pena de revogação.
0;acusado liberdade provisória, mediante termo de comparecimento obrigatório a todos os atos processuais, sob pena de revogação.
0;O juiz, salvo o caso do art. 312, poderá revogar a prisão preventiva, se, no curso do processo, verificar a falta de motivos para que subsista, bem como de novo decretá-la, se sobrevierem
0;O juiz poderá revogar a prisão preventiva se, no correr do processo, verificar a falta de motivo para que subsista, bem como de novo decretá-la, se sobrevierem razões que a justifiquem.
0;O juiz poderá, de ofício ou a pedido das partes, revogar a prisão preventiva se, no correr da investigação ou do processo, verificar a falta de motivo para que ela subsista, bem como novamente
0;Parágrafo único. O escrivão intimará o réu das obrigações e
0;§ 1o Não sendo encontrado o acusado, será procedida a citação por
0;I - se aplicadas no curso da instrução criminal, durante esta ou pelas
0;A decisão que impronunciar ou absolver o réu fará cessar a
0;a aplicação provisória de medida de segurança, a substituição ou a revogação da anteriormente aplicada poderão ser determinadas, também, na sentença absolutória
0;O juiz decidirá, motivadamente, no caso de manutenção, revogação ou substituição da prisão ou medida restritiva de liberdade anteriormente decretada e, tratando-se de acusado solto, sobre a
0;b) revogará as medidas restritivas provisoriamente decretadas
0;XI - que conceder, negar ou revogar a suspensão condicional da pena XII - que conceder, negar ou revogar livramento condicional XIII - que anular o processo da instrução criminal, no todo ou em
0;XXII - que revogar a medida de segurança XXIII - que deixar de revogar a medida de segurança, nos casos em que a lei admita a revogação XXIV - que converter a multa em detenção ou em prisão simples.
0;§ 2o Se a internação se prolongar até o término do prazo restante da
0;A permissão para pagamento da multa em quotas mensais será revogada, se o juiz reconhecer que o condenado dela se vale para fraudar a execução da pena. § 2o. A permissão para o pagamento em parcelas
0;de inspeção, para os fins legais , qualquer fato capaz de acarretar a revogação do benefício, a prorrogação do prazo ou a modificação das condições.
0;I - se, durante o prazo da suspensão, em sentença irrecorrivel, o
0;O juiz poderá ainda revogar a suspensão ou prorrogar o período de prova até o máximo, se não tiver sido este o fixado, quando o réu for condenado irrecorrivelmente, por motivo de contravenção,
0;No caso do n. I, a revogação será decretada à vista da certidão da sentença condenatória intercorrente, ou da comunicação feita pelo juiz que a tiver proferido ou da informação prestada pelo
0;A suspensão será revogada se o beneficiário:
0;Parágrafo único. O juiz poderá revogar a suspensão, se o beneficiário deixa de cumprir qualquer das obrigações constantes da sentença, de observar proibições inerentes à pena acessória, ou é irrecorr
0;Expirado o prazo de suspensão ou a prorrogação, sem que tenha ocorrido motivo de revogação, a pena privativa de liberdade será declarada extinta.
0;repartição congênere, averbando-se, mediante comunicação do juiz ou do tribunal, a revogação da suspensão ou a extinção da pena. Em caso de revogação, será feita a averbação definitiva no registro ger
0;impostas, o Conselho Penitenciário poderá, conforme a gravidade da falta, representar ao juiz, para o efeito de revogar-se o livramento.
0;O livramento poderá ser tambem revogado, se o liberado deixar de cumprir qualquer das obrigações constantes da sentença ou for irrecorrivelmente condenado, por motivo de contravenção, a pena que não
0;O juiz pode, também, revogar o livramento, se o liberado deixar de cumprir qualquer das obrigações constantes da sentença, de observar proibições inerentes à pena acessória ou for irrecorrivelmente
0;Parágrafo único. Se o juiz não revogar o livramento, deverá advertir o liberado ou exacerbar as condições. solto o liberado, sendo permitida, para a concessão de novo
0;Se a revogação for motivada por infração penal anterior à vigência do livramento, computar-se-á no tempo da pena o período em que esteve
0;A revogação será decretada a requerimento do Ministério Público, mediante representação do Conselho Penitenciário ou dos patronatos oficiais ou da autoridade policial a quem incumbir a
0;A revogação do livramento será decretada mediante representação do Conselho Penitenciário, ou a requerimento do Ministério Público, ou de ofício, pelo juiz, que, antes, ouvirá o
0;poderá ordenar a sua prisão, ouvido o Conselho Penitenciário, suspendendo o curso do livramento condicional, cuja revogação ficará, entretanto, dependendo da decisão final no novo processo.
0;pena privativa de liberdade, se expirar o prazo do livramento sem revogação, ou na hipótese do artigo anterior, for o liberado absolvido por sentença irrecorrível.
0;A revogação de reabilitação será decretada pelo juiz, de ofício ou a requerimento do Ministério Público.
0;o diretor do estabelecimento de internação ou a autoridade policial deverá, no relatório, concluir pela conveniência da revogação, ou não, da medida de segurança
0;Transitando em julgado a sentença de revogação, o juiz expedirá ordem para a desinternação, quando se tratar de medida detentiva, ou para que cesse a vigilância ou a proibição, nos outros
0;A lei posterior revoga a anterior quando expressamente o declare, quando seja com ela incompatível ou quando regule inteiramente a matéria de que tratava a lei anterior.
0;A lei nova, que estabeleça disposições gerais ou especiais a par das já existentes, não revoga nem modifica a lei anterior. § 3o Salvo disposição em contrário, a lei revogada não se restaura por ter
0;o Ninguém se escusa de cumprir a lei
1;passa a vigorar, com a seguinte redação, revogados as disposições em contrário: Art. 532. No casa de prisão em flagrante, observar-se-á o disposto
0;O processo de prorrogação, revisão, denúncia ou revogação total ou parcial de Convenção ou Acôrdo ficará subordinado, em qualquer caso, à aprovação de Assembléia Geral dos Sindicatos convenentes ou
0;O instrumento de prorrogação, revisão, denúncia ou revogação de Convenção ou Acôrdo será depositado para fins de registro e arquivamento, na repartição em que o mesmo originariamente foi
0;As modificações introduzidos em Convenção ou Acôrdo, por fôrça de revisão ou de revogação parcial de suas claúsulas passarão a vigorar 3 dias após a realização de depósito previsto no § 1o..
0;O processo da denúncia ou revogação obedecerá às normas estipuladas para a celebração dos contratos coletivos, ficando, igualmente, condicionado à homologação da autoridade competente.
0;Considera-se revogado ou reformado o prejulgado sempre que a Câmara de Justiça do Trabalho, funcionando completa, pronunciar-se, em tese ou em concreto, sobre a hipótese do prejulgado, firmando nova
0;Esta lei entrará em vigor na data de sua publicação, revogadas as disposições em contrário. Rio de Janeiro, 16 de dezembro de 1943, 122o. da Independência
0;acêrca dos negócios que interessam à massa falida, continua em vigor até que seja revogado expressamente pelo síndico, a quem o mandatário deve prestar contas.
0;Da revogação de atos praticados pelo devedor antes da falência
0;52. Não produzem efeitos
0;de outras posteriores, a massa receberá a parte que devia caber ao credor da hipoteca revogada
0;IV - a prática de atos a título gratuito, salvo os referentes a
0;A revogação do ato pode ser decretada, embora para celebração dêle houvesse precedido sentença executória, ou fôsse conseqüência de transação ou de medida asseguratória para garantia da
0;d) especificará os atos suscetíveis de revogação, indicando os fundamentos legais respectivos
0;verificar se o devedor praticou atos suscetíveis de revogação em caso de falência
0;IX - promover a efetivação da garantia porventura oferecida pelo
1;Arts. 1o. ao 456, revogados pela Lei no. 10.406, de 2002 L0556-L0556-PARTE SEGUNDA - DO COMÉRCIO MARÍTIMO
1;Arts. 731 a 739, revogados pela Lei no. 7.542, de 26.9.1986
0;improrrogáveis, contados do dia da sua apresentação, e por conseguinte for revogado o despacho da declaração da quebra, será tudo posto no antigo estado e o comerciante injuriado poderá in
0;culpa ou fraudulento, e quando anteriormente tenha sido concedida, será revogada. Art. 849 - A concordata pode ser reincidida pelas mesma causas por que tem lugar a revogação
0;do indiciado para que fiscalizem a sua conduta durante a mesma moratória: e esta será revogada a requerimento dos Fiscais, ou ainda de algum outro credor, sempre que se provar, ou que o im
0;bastará para solver integralmente as dividas passivas. Nestes casos o Tribunal, revogada a moratória, procederá imediatamente a declarar a falência, continuando nos mais atos ulteriores e
0;assistência ou autorização dos credores fiscais. A contravenção a este -preceito, não só anula o ato, mas pode determinar a revogação da moratória, se assim parecer ao Tribunal à vista da g
1;Parte revogada pela Lei 10.406, de 10.1.2002 TÍTULO I
0;A autorização para comerciar dada pelo marido à mulher pode ser revogada por sentença ou escritura pública mas a revogação só surtirá efeito relativamente a terceiro depois que for inscrita no Registr
0;1 - pela revogação do comitente 2 - quando o mandatário demite de si o mandato
0;O instrumento do mandato geral e o da sua revogação deverão ser registrados no Tribunal do Comércio do domicílio do mandante e do mandatário, ou no cartório do escrivão do juízo do
0;disposições nele contidas, começando a contar-se o prazo da data da mesma promulgação.
1;Parte revogada pela Lei 10.406, de 10.1.2002 PARTE SEGUNDA - DO COMÉRCIO MARÍTIMO
0;improrrogáveis, contados do dia da sua apresentação, e por conseguinte for revogado o despacho da declaração da quebra, será tudo posto no antigo estado e o comerciante injuriado poderá intentar a sua
0;A concordata pode ser reincidida pelas mesma causas por que tem lugar a revogação da moratória procedendo-
0;do indiciado para que fiscalizem a sua conduta durante a mesma moratória: e esta será revogada a requerimento dos Fiscais, ou ainda de algum outro credor, sempre que se provar, ou que o impetrante pro
0;bastará para solver integralmente as dividas passivas. Nestes casos o Tribunal, revogada a moratória, procederá imediatamente a declarar a falência, continuando nos mais atos ulteriores e conseqüentes
0;assistência ou autorização dos credores fiscais. A contravenção a este preceito, não só anula o ato, mas pode determinar a revogação da moratória, se assim parecer ao Tribunal à vista da gravidade do
0;Parágrafo único. O ato de disposição pode ser livremente revogado a qualquer tempo.
0;Parágrafo único. Art. 58. Nenhum associado poderá ser impedido de exercer direito ou
0;Parágrafo único. Pode revogar-se a oferta pela mesma via de sua divulgação, desde que ressalvada esta faculdade na oferta realizada.
0;Não se pode renunciar antecipadamente o direito de revogar a liberalidade por ingratidão do donatário.
0;Pode ocorrer também a revogação quando o ofendido, nos casos do artigo anterior, for o cônjuge, ascendente, descendente, ainda que adotivo, ou irmão do doador. Art. 559. A revogação por qualquer desse
0;A doação onerosa pode ser revogada por inexecução do encargo, se o donatário incorrer em mora. Não havendo prazo para o cumprimento, o doador poderá notificar judicialmente o donatário
0;A revogação por ingratidão não prejudica os direitos adquiridos por terceiros, nem obriga o donatário a restituir os frutos percebidos antes da citação válida mas sujeita-o a pagar os
0;Não se revogam por ingratidão: I - as doações puramente remuneratórias
0;pela revogação ou pela renúncia II - pela morte ou interdição de uma das partes
0;Quando a cláusula de irrevogabilidade for condição de um negócio bilateral
0;A revogação do mandato, notificada somente ao mandatário, não se pode opor aos terceiros que, ignorando-a, de boa-fé com ele trataram mas ficam salvas ao constituinte as ações
0;Tanto que for comunicada ao mandatário a nomeação de outro, para o mesmo negócio, considerar-se-á revogado o mandato anterior.
0;A renúncia do mandato será comunicada ao mandante
0;Antes de prestado o serviço ou preenchida a condição, pode o promitente revogar a promessa, contanto que o faça com a mesma publicidade se houver assinado prazo à execução da tarefa, entender-se-á que
0;das circunstâncias e dos riscos da empresa, bem como da conveniência em continuá-la, podendo a autorização ser revogada pelo juiz, ouvidos os pais, tutores ou representantes legais do menor ou do inte
0;A prova da emancipação e da autorização do incapaz, nos casos do art. 974 , e a de eventual revogação desta, serão inscritas ou averbadas no Registro Público de Empresas Mercantis.
0;Parágrafo único. Para o mesmo efeito e com idêntica ressalva, deve a modificação ou revogação do mandato ser arquivada e averbada no Registro Público de Empresas Mercantis.
0;518. Até a celebração do casamento podem os pais ou tutores revogar a autorização.
0;A revogação do mandato não necessita chegar ao conhecimento do mandatário mas, celebrado o casamento sem que o mandatário ou o outro contraente tivessem ciência da revogação, responderá o mandante
0;Só por instrumento público se poderá revogar o mandato. CAPÍTULO VII
0;realizado pelo mandatário, sem que ele ou o outro contraente soubesse da revogação do mandato, e não sobrevindo coabitação entre os cônjuges
0;Equipara-se à revogação a invalidade do mandato judicialmente decretada.
0;II - III - educação. III - § 3o A guarda unilateral obriga o pai ou a mãe que não a detenha
0;610. O reconhecimento não pode ser revogado, nem mesmo quando feito em testamento.
0;884. Os atos previstos nos artigos antecedentes revogam-se por atos iguais, e consideram-se revogados, se, havendo testamento posterior, de qualquer natureza, este os não confirmar ou modificar.
0;969. O testamento pode ser revogado pelo mesmo modo e forma como pode ser feito.
0;970. A revogação do testamento pode ser total ou parcial. Parágrafo único. Se parcial, ou se o testamento posterior for aberto ou dilacerado com seu consentimento, haver-se-á como revogado.
0;este Código, e se, na data de sua entrada em vigor, já houver transcorrido mais da metade do tempo estabelecido na lei revogada.
0;029. Até dois anos após a entrada em vigor deste Código
0;037. Salvo disposição em contrário, aplicam-se aos empresários e sociedades empresárias as disposições de lei não revogadas por este Código, referentes a comerciantes, ou a sociedades comerciais, bem
1;Fica revogado o art. 374 da Lei no 10.406, de 10 de janeiro de 2002 - Código Civil.
0;IV - promover a revogação de instrumento procuratório do idoso, nas hipóteses previstas no art. 43 desta Lei, quando necessário ou o interesse público justificar
0;revogação em razão de denúncia da incorporação, depois de restituídas aos adquirentes as quantias por eles pagas , ou de outras hipóteses previstas em lei e
0;adquirentes, alterar a composição da Comissão de Representantes e revogar qualquer de suas decisões, ressalvados os direitos de terceiros quanto aos efeitos já produzidos.
1;Ficam revogadas as Medidas Provisórias no.s 2.160-25, de 23 de agosto de 2001, 2.221, de 4 de setembro de 2001, e 2.223, de 4 de setembro de 2001, e os arts. 66 e 66-A da Lei no. 4.728, de 14 de julho
0;§ 1o Não sendo encontrado o acusado, será procedida a citação por
1;Ficam revogados os arts. 43, 398, 498, 499, 500, 501, 502, 537, 539, 540, 594, os §§ 1o. e 2o. do art. 366, os §§ 1o. a 4o. do art. 533, os §§ 1o. e 2o. do art. 535 e os §§ 1o. a 4o. do art. 538 d
1;Governo Federal no planejamento, desenvolvimento e estímulo ao setor turístico revoga a Lei no 6.505, de 13 de dezembro de 1977, o Decreto-Lei no 2.294, de 21 de novembro de 1986, e dispositivos da
1;Ficam revogados: I - a Lei no 6.505, de 13 de dezembro de 1977
0;§ 1o A redução prevista no inciso I será também aplicada aos
0;-A
0;§ 2o A legitimação de posse também será concedida ao coproprietário
1;Estatuto da Criança e do Adolescente, 8.560, de 29 de dezembro de 1992 revoga dispositivos da Lei no 10.406, de 10 de janeiro de 2002 - Código Civil, e da Consolidação das Leis do Trabalho - CLT
0;interprofissional da Justiça da Infância e da Juventude, em especial, no caso de adoção, sobre a irrevogabilidade da medida. § 3o O consentimento dos titulares do poder familiar será colhido
1;de julho de 1990, que dispõe sobre os crimes hediondos, nos termos do inciso XLIII do art. 5o da Constituição Federal e revoga a Lei no 2.252, de 1o de julho de 1954, que trata de corrupção de menores
1;abril de 1961, 10.848, de 15 de março de 2004, 12.111, de 9 de dezembro de 2009, e 11.526, de 4 de outubro de 2007 revoga dispositivo da Lei no 8.162, de 8 de janeiro de 1991 e dá outras providências
0;O juiz poderá revogar a medida cautelar ou substituí-la quando verificar a falta de motivo para que subsista, bem como voltar a decretá-la, se sobrevierem razões que a justifiquem.
0;ao acusado liberdade provisória, mediante termo de comparecimento a todos os atos processuais, sob pena de revogação.”
0;Em qualquer fase da investigação policial ou do processo
0;Parágrafo único. Também será admitida a prisão preventiva quando
0;A autoridade policial somente poderá conceder fiança nos
0;Não será, igualmente, concedida fiança:
0;quando presentes os motivos que autorizam a decretação da
0;a) b) c) I - de 1 a 100 salários mínimos, quando se tratar de
0;III - Art. 334. A fiança poderá ser prestada enquanto não transitar em
1;São revogados o art. 298, o inciso IV do art. 313, os §§ 1o. a 3o. do art. 319, os incisos I e II do art. 321, os incisos IV e V do art. 323, o inciso III do art. 324, o § 2o. e seus incisos I, II
1;Lei Complementar no. 79, de 7 de janeiro de 1994, e o Decreto-Lei no. 3.689, de 3 de outubro de 1941 - Código de Processo Penal e revoga dispositivo da Lei no. 10.201, de 14 de fevereiro de 2001.
0;e) Secretaria de Direitos Humanos da Presidência da República.
0;concessão de liberdade provisória ou revogação de prisão III - sentença
1;agosto de 1981, 9.393, de 19 de dezembro de 1996, e 11.428, de 22 de dezembro de 2006 e revoga as Leis no. s 4.771, de 15 de setembro de 1965, e 7.754, de 14 de abril de 1989, a Medida Provisória no. 31
1;21 de dezembro de 2000, e 10.865, de 30 de abril de 2004, e o Decreto-Lei no. 911, de 1o. de outubro de 1969 revoga dispositivos do Decreto-Lei no. 1.569, de 8 de agosto de 1977, das Leis no.s 5.010,
0;§ 10. O pagamento ou o pedido de parcelamento deverá ser efetuado
0;cuja prescrição ficou suspensa por mais de 5 anos por força da revogação do parágrafo único do art. 5o. do Decreto-Lei no. 1.569, de 8 de agosto de 1977, constante do inciso VIII do art. 114 desta Le
1;Ficam revogados: I - os incisos IV e V do caput do art. 1o. da Lei no. 10.179, de 6 de
0;Na ausência de normas que regulem processos eleitorais,
0;notário ou registrador, após praticar o ato, pode requerer, ao juízo competente para decidir questões notariais ou registrais, a revogação total ou parcial do benefício ou a sua substituição pelo parc
0;Contra a decisão que indeferir a gratuidade ou a que acolher pedido de sua revogação caberá agravo de instrumento, exceto quando a questão for resolvida na sentença, contra a qual caberá apelação.
0;Confirmada a denegação ou a revogação da gratuidade, o relator ou o órgão colegiado determinará ao recorrente o recolhimento das custas processuais, no prazo de 5 dias, sob pena de não conhecimento
0;Sobrevindo o trânsito em julgado de decisão que revoga a gratuidade, a parte deverá efetuar o recolhimento de todas as despesas de cujo adiantamento foi dispensada, inclusive as relativas ao recurso
0;A parte que revogar o mandato outorgado a seu advogado constituirá, no mesmo ato, outro que assuma o patrocínio da causa.
0;A tutela provisória conserva sua eficácia na pendência do processo, mas pode, a qualquer tempo, ser revogada ou modificada. Parágrafo único. Salvo decisão judicial em contrário, a tutela
0;Na decisão que conceder, negar, modificar ou revogar a tutela provisória, o juiz motivará seu convencimento de modo claro e preciso.
0;efeitos dos embargos poderá, a requerimento da parte, ser modificada ou revogada a qualquer tempo, em decisão fundamentada. § 3o. Quando o efeito suspensivo atribuído aos embargos disser respeito
0;confirma, concede ou revoga tutela provisória VI - decreta a interdição.
0;O capítulo da sentença que confirma, concede ou revoga a tutela provisória é impugnável na apelação.
0;rejeição do pedido de gratuidade da justiça ou acolhimento do pedido de sua revogação VI - exibição ou posse de documento ou coisa
0;X - concessão, modificação ou revogação do efeito suspensivo aos embargos à execução
0;o fato ao presidente ou ao vice-presidente que os houver enviado, para que seja revogada a decisão de suspensão referida no art. 1.036, § 1o. § 2o. É vedado ao órgão colegiado decidir, para os fins
1;Ao entrar em vigor este Código, suas disposições se aplicarão desde logo aos processos pendentes, ficando revogada a Lei no. 5.869, de 11 de janeiro de 1973.
0;relativas ao procedimento sumário e aos procedimentos especiais que forem revogadas aplicar-se-ão às ações propostas e não sentenciadas até o início da vigência deste Código.
0;As remissões a disposições do Código de Processo Civil revogado, existentes em outras leis, passam a referir-se às que lhes são correspondentes neste Código.
0;518 Até a celebração do casamento podem os pais ou tutores revogar a autorização.
0;§ 1o. -A O candidato poderá usar recursos próprios em sua campanha
0;resumir as informações contidas na prestação de contas
0;relatório financeiro, com documentação que comprove a entrada
1;Decreto-Lei no. 2.848, de 7 de dezembro de 1940 e revoga dispositivos do Decreto-Lei no. 2.848, de 7 de dezembro de 1940.
0;a) b) c) § 1o. A outorga da concessão ou permissão é prerrogativa do
1;Ficam revogados os §§ 4o. , 5o. e 6o. do art. 33 , as alíneas a , b e c do art. 34 e o § 2o. do art. 38 da Lei no. 4.117, de 27 de agosto de 1962
0;Caberá à autoridade competente resolver sobre a expulsão, a duração do impedimento de reingresso e a suspensão ou a revogação dos efeitos da expulsão, observado o disposto nesta Lei.
0;Regulamento definirá procedimentos para apresentação e processamento de pedidos de suspensão e de revogação dos efeitos das medidas de expulsão e de impedimento de ingresso e permanência em território
0;vez cessada a causa, poderá readquiri-la ou ter o ato que declarou a perda revogado, na forma definida pelo órgão competente do Poder Executivo.
1;de 15 de julho de 1981, 9.760, de 5 de setembro de 1946, e 3.365, de 21 de junho de 1941 revoga dispositivos da Lei Complementar no. 76, de 6 de julho de 1993, e da Lei no. 13.347, de 10 de outubro de
1;A Lei no. 12.651, de 25 de maio de 2012 , passa a vigorar com
1;Ficam revogados: I - os arts. 14 e 15 da Lei Complementar no. 76, de 6 de julho de 1993
1;de 15 de julho de 1981, 9.760, de 5 de setembro de 1946, e 3.365, de 21 de junho de 1941 revoga dispositivos da Lei Complementar no. 76, de 6 de julho de 1993, e da Lei no. 13.347, de 10 de outubro de
1;9.096, de 19 de setembro de 1995, e 4.737, de 15 de julho de 1965 , e revoga dispositivos da Lei no. 13.165, de 29 de setembro de 2015 , com o fim de promover reforma no ordenamento político-eleitoral
1;Ficam revogados o § 1 o. -A do art. 23 da Lei no. 9.504, de 30 de setembro de 1997 , e os arts. 5 o., 6o., 7o., 8o., 10 e 11 da Lei no. 13.165, de 29 de setembro de 2015
1;9.096, de 19 de setembro de 1995, e 4.737, de 15 de julho de 1965 , e revoga dispositivos da Lei no. 13.165, de 29 de setembro de 2015 , com o fim de promover reforma no ordenamento político-eleitoral
1;Ficam revogados o § 1 o -A do art. 23 da Lei n o 9.504, de 30 de setembro de 1997, e os arts. 5 o , 6 o , 7 o , 8 o , 10 e 11 da Lei n o 13.165, de 29 de setembro de 2015.”
1;definir como causas de aumento de pena o estupro coletivo e o estupro corretivo e revoga dispositivo do Decreto-Lei no. 3.688, de 3 de outubro de 1941
0;O cometimento de novo crime doloso ou falta grave implicará a revogação do benefício previsto no § 3o. deste artigo.” Art. 4o. O § 2o. do art. 2o. da Lei no. 8.072, de 25 de julho de 1990 (Lei
1;Lei no. 8.069, de 13 de julho de 1990, e a Lei no. 8.906, de 4 de julho de 1994 e revoga a Lei no. 4.898, de 9 de dezembro de 1965, e dispositivos do Decreto-Lei no. 2.848, de 7 de dezembro de 1940
1;Consolidação das Leis do Trabalho, aprovada pelo Decreto-Lei no. 5.452, de 1o. de maio de 1943 revoga a Lei Delegada no. 4, de 26 de setembro de 1962, a Lei no. 11.887, de 24 de dezembro de 2008, e di
0;Parágrafo único. O registro dos atos constitutivos e de suas
0;Parágrafo único. a) b)” “Art. 29. O empregador terá o prazo de 5 dias úteis para
1;Ficam revogados: I - a Lei Delegada no. 4, de 26 de setembro de 1962
0;O juiz poderá, de ofício ou a pedido das partes, revogar a medida cautelar ou substituí-la quando verificar a falta de motivo para que subsista, bem como voltar a decretá-la, se sobrevierem
0;comparecimento obrigatório a todos os atos processuais, sob pena de revogação. § 2o. Se o juiz verificar que o agente é reincidente ou que integra
0;O juiz poderá, de ofício ou a pedido das partes, revogar a prisão preventiva se, no correr da investigação ou do processo, verificar a falta de motivo para que ela subsista, bem como
1;Fica revogado o § 2o. do art. 2o. da Lei no. 8.072, de 25 de julho de 1990.
0;Esta Lei entrará em vigor na data de sua publicação, revogadas as disposições em contrário. Senado Federal, 3 de novembro de 1952.
0;a) instruir os pedidos relativos aos assentimentos previstos nestas lei bem como os processados de modificação ou revogação das autorizações concedidas
1;São revogados os decretos-leis ns. 1.164, de 18 de março de 1939 1.968, de 17 de janeiro de 1940 2.610 de 20 de setembro do mesmo ano 6.430, de 17 de abril de 1944 7.724,
0;A lei só se revoga, ou derroga por outra lei mas a disposição especial não revoga a geral, nem a geral revoga a especial, senão quando a ela, ou ao seu assunto, ser referir, alternado-a explícita ou i
0;Parágrafo único. Se os atos revogados tinham por único objeto atribuir direitos preferenciais, mediante hipoteca, anticrese, ou penhor, sua nulidade importará somente na anulação da preferência ajusta
0;I. A ação do doador para revogar a doação contado o prazo do dia em que souber do fato, que o autoriza a revogá-la
0;prazo do vencimento do contrato, da decisão final do processo, ou da revogação do mandato.
0;XI. A ação do proprietário do prédio desfalcado contra o do prédio
0;II. Quando ela lhe revogar o mandato.
0;III. Quando dissolvida a sociedade conjugal.
0;Além dos casos comuns a todos os contractos, a doação também se revoga por ingratidão do donatário. Parágrafo único. A doação onerosa poder-se-á revogar por inexecução do encargo, desde que o donatári
0;A revogação por qualquer desses motivos pleitear-se-á dentro em um ano, a contar de quando chegues ao conhecimento do doador, fato, que a autorizar
0;A revogação por ingratidão não prejudica os direitos adquiridos por terceiro, nem obriga o donatário a restituir os frutos, que percebeu antes de contestada a lide mas sujeita-o a pagar
0;Não se revogam por ingratidão: I. As doações puramente remuneractorias.
0;I. Pela revogação, ou pela renuncia.
0;II. Pela morte, ou interdição de uma das partes.
0;I. Quando se tiver convencionado que o mandante não possa revoga-lo, ou for em causa própria a procuração dada.
0;A revogação do mandato, notificada somente ao mandatário, não se pode opor aos terceiros, que, ignorando-a, de boa fé com ele trataram mas ficam salvas ao constituinte as ações, que no
0;Tanto que for comunicada ao mandatário a nomeação de outro, para o mesmo negocio, considerar-se-á revogado o mandato anterior.
0;Antes de prestado o serviço, ou preenchida a condição, pode o promitente revogar a promessa, contando que faça com a mesma publicidade.
0;Os atos desta espécie revogam-se por atos iguais, e consideram-se revogados, se, havendo testamento posterior, de qualquer natureza, este os não confirmar, ou modificar.
0;747. A revogação do testamento pode ser total ou parcial.
0;Parágrafo único. Se a revogação for parcial
0;Art. 1.750. Sobrevindo descendente sucessível ao testador,
0;Ficam revogadas as Ordenações, Alvarás, Leis, Decretos, Resoluções, Usos e Costumes concernentes às matérias de direito civil reguladas neste Código.
1;Esta lei entrará em vigor na data de sua publicação, revogadas as disposições em contrário, especialmente os arts. 863 e 864 do Código de Processo Civil e 632 a 636 do Código de Processo Penal.
0;Esta lei entrará em vigor na data de sua publicação, revogadas as disposições em contrário. Rio de Janeiro, 4 de novembro de 1959 138o. da Independência e
0;referidos troncos, à medida que expirarem as concessões ou autorizações vigentes ou que se tornar conveniente a revogação das autorizações sem prazo determinado.
0;§ 1o A outorga da concessão ou permissão é prerrogativa do Presidente
0;Ficam revogados os dispositivos em vigor referentes ao registro de aparelhos receptores de radiodifusão.
0;serviços de telecomunicações não colidentes com esta lei e não revogadas ou derrogadas, explícita ou implícitamente, pela mesma, deverão ser consolidadas pelo Poder Executivo.
0;Esta lei entrará em vigor na data de sua publicação, revogadas as disposições em contrário. Brasília, 1o. de junho de 1964 143o. da Independência e 76o. da
0;revogação em razão de denúncia da incorporação, depois de restituídas aos adquirentes as quantias por eles pagas , ou de outras hipóteses previstas em lei e (Incluído pela Lei
0;A assembléia poderá revogar, pela maioria absoluta dos votos dos contratantes, qualquer decisão da Comissão, ressalvados os direitos de terceiros quanto aos efeitos já produzidos.
0;A morte, falência ou concordata do condomínio ou sua dissolução, se se tratar de sociedade, não revogará o mandato de que trata o parágrafo anterior, o qual poderá ser exercido pela Comissão de Repres
1;A presente lei entrará em vigor na data de sua publicação, revogados o Decreto no. 5.481, de 25 de junho de 1928 e quaisquer disposições em contrário.
0;Esta lei entrará em vigor na data de sua publicação, não se aplica aos processos em curso e revoga as disposições em contrário.
1;Esta Lei entrará em vigor 120 dias após a data de sua publicação, revogados o Decreto no. 23.793, de 23 de janeiro de 1934 e demais disposições em contrário.
0;Esta lei entrará em vigor na data de sua publicação, revogadas as disposições em contrário. Brasília, 9 de dezembro de 1965 144o. da Independência e 77o. da
1;É revogado o inciso VI do art 133, ficando renumerados de VI a XVI os atuais incisos VII a XVII.
1;São revogados os §§ 1o. e 3o. do art. 145, renumerado para parágrafo único o atual § 2o., passando o caput a vigorar com a seguinte redação:
1;São revogados os §§ 4o. e 5 o. do art. 148. Art 30. São revogados os §§ 1o. e 2o. do art. 151. Art 31. O inciso I do art. 154 passa a vigorar com a seguinte
1;São revogados os incisos III e IV do art. 167, passando os incisos I e II a vigorar com a seguinte redação:
1;É revogado o § 2o. do artigo 175, renumerados os atuais §§ 3o. e 4o. para 2o. e 3o..
1;São revogados os §§ 1o. e 2o. do art. 222. Art 48. O § 3o. do art. 223 passa a vigorar com a seguinte
1;É revogado a parágrafo único do art. 374, e o caput do mencionado artigo passa a vigorar com a seguinte redação:
0;Esta Lei entrará em vigor na data de sua publicação, revogadas as disposições em contrário. Brasília, 4 de maio de 1966 145o. da Independência e 78o. da
0;A atribuição pode ser revogada, a qualquer tempo, por ato unilateral da pessoa jurídica de direito público que a tenha conferido.
0;Os tratados e as convenções internacionais revogam ou modificam a legislação tributária interna, e serão observados pela que lhes sobrevenha.
0;da obrigação e rege-se pela lei então vigente, ainda que posteriormente modificada ou revogada. § 1o. Aplica-se ao lançamento a legislação que, posteriormente à
0;A concessão da moratória em caráter individual não gera direito adquirido e será revogado de ofício, sempre que se apure que o beneficiado não satisfazia ou deixou de satisfazer as condições ou não cumpram.
0;Parágrafo único. No caso do inciso I deste artigo, o tempo decorrido entre a concessão da moratória e sua revogação não se computa para efeito da prescrição do direito à cobrança do crédito no caso do
0;reforma, anulação, revogação ou rescisão de decisão condenatória.
0;A restituição de tributos que comportem, por sua natureza,
0;definitiva a decisão administrativa ou passar em julgado a decisão judicial que tenha reformado, anulado, revogado ou rescindido a decisão condenatória.
0;A isenção, salvo se concedida por prazo certo ou em função de determinadas condições, pode ser revogada ou modificada por lei a qualquer tempo, observado o disposto no inciso III do artigo 104.
1;Esta Lei entrará em vigor, em todo o território nacional, no dia 1o. de janeiro de 1967, revogadas as disposições em contrário, especialmente a Lei no. 854, de 10 de outubro de 1949.
1;Esta Lei entra em vigor na data de sua publicação, revogados o Decreto-Lei no. 5.894, de 20 de outubro de 1943, e demais disposições em contrário.
0;O juiz poderá revogar a prisão preventiva se, no correr do processo verificar a falta de motivo para que subsista, bem como de nôvo decretá-la, se sobrevierem razões que a justifiquem.
0;A reabilitação será revogada de ofício, ou a requerimento do Ministério Público, se a pessoa reabilitada fôr condenada, por decisão definitiva, ao cumprimento de pena privativa da liberdade.
0;Esta Lei entrará em vigor na data de sua publicação, revogadas as disposições em contrário. Brasília, 5 de julho de 1968 147o. da Independência e 80o. da
1;Esta Lei entrará em vigor 30 dias após a data de sua publicação, revogando-se a Lei número 187, de 15 de janeiro de 1936, a Lei número 4.068, de 9 de junho de 1962, os Decretos-Leis números 265,
1;Restabelece representações no Conselho Nacional de Telecomunicações, revoga dispositivos da Lei no. 4.117, de 27 de agôsto de 1962 e dá outras providências.
1;Ficam revogados os artigos 21 e 22 da Lei no. 4.117, de 27 de agôsto de 1962, e demais disposições em contrário.
0;processual penal, sòmente aos fatos ocorridos a partir dessa data, revogadas as disposições em contrário. Brasília, 29 de outubro de 1971 150o. da Independência e
0;Esta Lei entra em vigor na data de sua publicação, revogadas as disposições em contrário. Brasília, 14 de junho de 1972 151o. da Independência e 84o. da
0;A parte, que revogar o mandato outorgado ao seu advogado, no mesmo ato constituirá outro que assuma o patrocínio da causa.
0;o A tutela antecipada poderá ser revogada ou modificada a qualquer tempo, em decisão fundamentada.
0;que versem sobre a revogação de doação, fundada na ingratidão do donatário. Parágrafo único. Esse procedimento não será observado nas ações
0;g) que versem sobre revogação de doação
0;A confissão, quando emanar de erro, dolo ou coação, pode ser revogada: I - por ação anulatória, se pendente o processo em que foi feita
0;conceder a tutela liminarmente ou mediante justificação prévia, citado o réu. A medida liminar poderá ser revogada ou modificada, a qualquer tempo, em decisão fundamentada.
0;o A decisão relativa aos efeitos dos embargos poderá, a requerimento da parte, ser modificada ou revogada a qualquer tempo, em decisão fundamentada, cessando as circunstâncias que a motivaram.
0;do artigo antecedente e na pendência do processo principal mas podem, a qualquer tempo, ser revogadas ou modificadas.
0;Parágrafo único. Salvo decisão judicial em contrário, a medida
0;Este Código entrará em vigor no dia 1 o de janeiro de 1974, revogadas as disposições em contrário.
1;Esta Lei entra em vigor na data de sua publicação, revogados os artigos 9o. e 10, da Lei no. 263, de 23 de fevereiro de 1948, e as disposições em contrário.
0;Esta lei entra em vigor na data de sua publicação, revogadas as disposições em contrário.
0;os casos de revogação e os requisitos para nova obtenção IV - a audiência da Administração Penitenciária, bem como a do
0;A suspensão pode também ser revogada se o sentenciado deixa de cumprir qualquer das obrigações constantes da sentença, infringe as proibições inerentes à pena acessória, ou é irrecorrivelmente
0;Parágrafo único. O juiz pode, também, revogar o livramento, se o liberado deixar de cumprir qualquer das obrigações constantes da sentença, de observar proibições inerentes à pena acessória ou for
0;A permissão para o pagamento em parcelas será revogada, se o juiz verificar que o condenado dela se vale para fraudar a execução da pena. Nesse caso, a caução resolver-se-á em valor monetário,
0;órgão de inspeção, para os fins legais , qualquer fato capaz de acarretar a revogação do benefício, a prorrogação do prazo ou a modificação das condições.
0;A suspensão será revogada se o beneficiário: I - é condenado, por sentença irrecorrível, a pena privativa da
0;Parágrafo único. O juiz poderá revogar a suspensão, se o beneficiário deixa de cumprir qualquer das obrigações constantes da sentença, de observar proibições inerentes à pena acessória, ou é irrecorri
0;O juiz pode, também, revogar o livramento, se o liberado deixar de cumprir qualquer das obrigações constantes da sentença, de observar proibições inerentes a pena acessória ou for
0;Parágrafo único. Se o juiz não revogar o livramento, deverá advertir o liberado ou exacerbar as condições.
0;A revogação do livramento será decretada mediante representação do Conselho Peniten
0;dos atuais e que não tenham sido, explícita ou implicitamente, revogados ou derrogados.
0;Esta Lei entrará em vigor na data de sua publicação, revogadas as disposições em contrário. Brasília,
1;Fica revogada a alínea c do inciso IX do artigo 146 da Lei no. 4.737, de 15 de julho de 1965
1;Fica revogado o inciso I do artigo 176 da Lei no. 4.737, de 15 de julho de 1965 , renumerando-se os demais.
;arts, 38 e 39 deste código, bem como especificará os deveres e direitos do preso, os critérios para revogação e transferência dos regimes e estabelecerá as infrações disciplinares o correspondentes sa
0;Conversão da Multa e revogação Art. 51 - A multa converte-se em pena de detenção, quando o
0;período de prova da suspensão ou do livramento condicional, se não ocorrer revogação II - não se consideram os crimes militares próprios e políticos.
0;A suspensão será revogada se, no curso do prazo, o beneficiário:
0;A suspensão poderá ser revogada se o condenado descumpre qualquer outra condição imposta ou é irrecorrivelmente condenado, por crime culposo ou por contravenção, a pena privativa de liberdade
0;Quando facultativa a revogação, o juiz pode, ao invés de decretá-la, prorrogar o período de prova até o máximo, se este não foi o fixado.
0;Expirado o prazo sem que tenha havido revogação, considerasse extinta a pena privativa de liberdade.
0;O juiz poderá, também, revogar o livramento, se o liberado deixar de cumprir qualquer das obrigações constantes dá sentença, ou for irrecorrivelmente condenado, por crime ou contravenção, a pena
0;Revogado o livramento, não poderá ser novamente concedido, e, salvo quando a revogação resulta de condenação por outro crime anterior àquele beneficio, não se desconta n
0;Se até o seu término o livramento não é revogado, considera-se extinta a pena privativa de liberdade.
0;execução, computando-se o período de prova da suspensão e o do livramento condicional, senão sobrevier revogação, desde que o condenado:
0;A reabilitação será revogada, de ofício ou a requerimento do Ministério Público, se o reabilitado for condenado, como reincidente, por decisão definitiva, a pena que não seja de multa.
0;do dia em que transita em julgado a sentença condenatória, para a acusação, ou a que revoga a suspensão condicional da pena ou o livramento condicional
0;No caso de evadir-se o condenado ou de revogar-se o livramento condicional, a prescrição é regulada pelo tempo que resta da pena.
1;Ficam revogados os arts. 4o., 5o., 6o. e 7o. da Lei no. 6.989, de 5 de maio de 1982, restabelecendo-se a redação anterior dos arts. 145, 175, 176 e 177 da Lei no. 4.737, de 15 de julho de 1965
1;Fica revogado o § 3o. do art. 67 da Lei no. 5.682, de 21 de julho de 1971 - Lei Orgânica dos Partidos Políticos, e suspensa a aplicação do art. 250 da Lei no. 4.737, de 15 de julho de 1965 - Código
1;Ficam revogados os arts. 731 a 739 da Lei no. 556, de 25 de junho de 1850 - Código Comercial Brasileiro o art. 5o. do Decreto-lei no. 1.284, de 18 de maio de 1939 o Decreto-lei no. 235, de 2 de
1;São revogados os artigos 51 e parágrafos, 151 e incisos e 157 da Lei no. 4.737, de 15 de julho de 1965, que institui o Código Eleitoral.
1;São revogadas, desde sua edição, a Medida Provisória no. 153, de 15 de março de 1990, que define os crimes de abuso do poder econômico, e dá outras providências, e a Medida Provisória no. 156, de 1
0;A guarda poderá ser revogada a qualquer tempo, mediante ato judicial fundamentado, ouvido o Ministério Público.
0;A liberdade assistida será fixada pelo prazo mínimo de seis meses, podendo a qualquer tempo ser prorrogada, revogada ou substituída por outra medida, ouvido o orientador, o Ministério Público e o defe
0;interprofissional da Justiça da Infância e da Juventude, em especial, no caso de adoção, sobre a irrevogabilidade da medida. Vigência
1;Ficam revogadas as Leis n°s 3.164, de 1° de junho de 1957, e 3.502, de 21 de dezembro de 1958 e demais disposições em contrário.
1;Acrescenta parágrafo único ao art. 57 da Lei n° 8.078, de 11 de setembro de 1990, que dispõe sobre a proteção do consumidor, e revoga o art. 3° da Lei n° 8.656, de 21 de maio de 1993.
1;Ficam revogados os incisos XI do art. 30 e VII do art. 35 e os arts. 62 a 65 e 294 da Lei no. 4.737, de 15 de julho de 1965, que dispõe sobre o Preparador Eleitoral.
0;O descumprimento injustificado do compromisso de desempenho implicará a revogação da aprovação do CADE, na forma do art. 55, e a abertura de processo administrativo para adoção das medidas cabíveis.
0;A suspensão será revogada se, no curso do prazo, o beneficiário vier a ser processado por outro crime ou não efetuar, sem motivo justificado, a reparação do dano.
0;§ 4o. A suspensão poderá ser revogada
1;Ficam revogadas a Lei no. 4.611, de 2 de abril de 1965 e a Lei no. 7.244, de 7 de novembro de 1984.
1;São revogados os §§ 1° e 2° do art. 51 do Código Penal e o art. 182 da Lei n° 7.210, de 11 de julho de 1984.
1;Ficam revogados o parágrafo único do art. 213 e o parágrafo único do art. 214, do Decreto-lei n° 2.848, de 7 de dezembro de 1940.
0;elaborar seu programa de trabalho e respectiva proposta
0;embargo definitivo, com revogação da outorga, se for o caso, para repor incontinenti, no seu antigo estado, os recursos hídricos, leitos e margens, nos termos dos arts. 58 e 59 do Código de Águas ou t
0;vigência estimado, observado o disposto no art. 124 desta Lei, bem como por revogação, caducidade e anulação. Art. 123. A revogação deverá basear-se em razões de conveniência e oportunidade relevantes
1;Ficam revogados: I - a Lei n° 4.117, de 27 de agosto de 1962, salvo quanto a matéria
1;Ficam revogadas as Leis no.s 5.108, de 21 de setembro de 1966, 5.693, de 16 de agosto de 1971, 5.820, de 10 de novembro de 1972, 6.124, de 25 de outubro de 1974, 6.308, de 15 de dezembro de
1;Ficam revogados o art. 35, e seu parágrafo único, do Decreto-lei no. 3.689, de 3 de outubro de 1941 - Código de Processo Penal.
0;a) revogada b) revogada c) revogada d) revogada e) revogada f) revogada g) revogada h) revogada i) revogada j) revogada. § 1o Revogado.
1;de 14 de fevereiro de 2001, da Lei Complementar no 63, de 11 de janeiro de 1990 e revoga as Leis no 9.317, de 5 de dezembro de 1996, e 9.841, de 5 de outubro de 1999.
0;Nas licitações será assegurada, como critério de desempate,
1;Ficam revogadas, a partir de 1o de julho de 2007, a Lei no. 9.317, de 5 de dezembro de 1996, e a Lei no. 9.841, de 5 de outubro de 1999.
1;Ficam revogados: I - a partir da data de publicação desta Lei Complementar:
1;Esta Lei entrará em vigor na data de sua publicação, revogadas as disposições em contrário. Brasília, 6 de novembro de 1974 153o. da Independência e 86o. da
0;proprietário ou promitente vendedor de imóvel cujos respectivos contratos contenham cláusula de irrevogabilidade ou irretratabilidade, inclusive em incorporações imobiliárias, ou de proprietário em co
0;dos valores entregues ao devedor pelo contratante de boa-fé na hipótese de revogação ou ineficácia do contrato, conforme disposto no art. 136 desta Lei.
0;O mandato conferido para representação judicial do devedor continua em vigor até que seja expressamente revogado pelo administrador judicial.
0;massa falida receberá a parte que devia caber ao credor da hipoteca revogada
0;IV - a prática de atos a título gratuito, desde 2 anos antes da
0;desta Lei que tenham sido previstos e realizados na forma definida no plano de recuperação judicial será declarado ineficaz ou revogado. Art. 132. A ação revocatória, de que trata o art. 130 desta
0;Na hipótese de securitização de créditos do devedor, não será declarada a ineficácia ou revogado o ato de cessão em prejuízo dos direitos dos portadores de valores mobiliários emitidos pelo securitiza
0;O ato pode ser declarado ineficaz ou revogado, ainda que praticado com base em decisão judicial, observado o disposto no art. 131 desta Lei.
1;Ressalvado o disposto no art. 192 desta Lei, ficam revogados o Decreto-Lei no. 7.661, de 21 de junho de 1945, e os arts. 503 a 512 do Decreto-Lei no. 3.689, de 3 de outubro de 1941 - Código de Process
0;CAPÍTULO V
0;o. O Decreto-Lei no. 2.848, de 7 de dezembro de 1940 - Código
1;Ficam revogados os incisos VII e VIII do art. 107, os arts. 217, 219, 220, 221, 222, o inciso III do caput do art. 226, o § 3o. do art. 231 e o art. 240 do Decreto-Lei no. 2.848, de 7 de dezembro d
0;O arresto do imóvel poderá ser decretado de início, revogando-se, porém, se no prazo de 15 dias não for promovido o processo de inscrição da hipoteca legal
1;Esta Lei entrará em vigor em todo o território nacional no dia 1o. de julho de 1974, revogada a Lei no. 4.827, de 7 de março de 1924 e os Decretos ns. 4.857, de 9 de novembro de 1939, 5.318, de 29 de
1;Esta Lei entrará em vigor em todo o território nacional no dia 1 ° de julho de 1975, revogadas as disposições em contrário. Nesse dia lavrarão os oficiais termo de encerramento nos livros e dele remet
1;Esta Lei entra em vigor na data de sua publicação, revogadas as disposições em contrário. Senado Federal, 2 de janeiro de 1974 153o. da Independência e
1;Esta Lei entra em vigor na data de sua publicação, revogadas as disposições em contrário. Brasília, 17 de junho de 1974 153o. da Independência e 86o. da República
0;A inexistência de atos neste site não significa sua revogação. Leis Complementares Leis Delegadas Leis do Império Leis Ordinárias
1;altera as Leis no. s 6.938, de 31 de agosto de 1981, 9.393, de 19 de dezembro de 1996, e 11.428, de 22 de dezembro de 2006 revoga as Leis no. s 4.771, de 15 de setembro de 1965, e 7.754, de 14
1;crimes hediondos, nos termos do inciso XLIII do art. 5o da Constituição Federal e revoga a Lei no 2.252, de 1o de julho de 1954, que trata de corrupção de menores
1;Fica revogada a Lei no. 10.838, de 30 de janeiro de 2004.
1;Fica revogado o § 6o. do art. 17 da Lei no. 8.213, de 24 de julho de 1991. Produção de efeito
1;Fica revogado o parágrafo único do art. 38 da Lei no. 4.117, de 27 de agosto de 1962
1;Fica revogado o § 2o. do art. 235 da Lei no. 6.015, de 31 de dezembro de 1973.
1;Ficam revogados: I - os art. 288-A a art. 288-G da Lei no. 6.015, de 31 de dezembro de
1;Ficam revogados: I - a Lei Delegada no. 4, de 26 de setembro de 1962
1;Institui o regime disciplinar do Departamento de Polícia Federal e da Polícia Civil do Distrito Federal, revoga dispositivos da Lei no 4.878, de 3 de dezembro de 1965, e dá outras providências. 1.950
1;Fica revogada a Portaria no 1.091, de 16 de junho de 2003. GLEISI HOFFMANN
1;Fica revogado o Anexo à Resolução no 5, de 7 de junho de 2001.
